MSA index growth rate forecast
…
## Warning in sqrt(diag(best$var.coef)): NaNs produced

## Warning in sqrt(diag(best$var.coef)): NaNs produced

## Warning in sqrt(diag(best$var.coef)): NaNs produced

## Warning: 60 errors (1 unique) encountered for arima
## [60] Could not find an appropriate ARIMA model.
## This is likely because automatic selection does not select models with characteristic roots that may be numerically unstable.
## For more details, refer to https://otexts.com/fpp3/arima-r.html#plotting-the-characteristic-roots

fit

## # A mable: 390 x 3
## # Key:     geo, cbsa [390]
##    geo               cbsa                       arima
##    <chr>            <dbl>                     <model>
##  1 Abilene - TX     10180 <LM w/ ARIMA(2,0,0) errors>
##  2 Akron - OH       10420                <NULL model>
##  3 Albany - GA      10500 <LM w/ ARIMA(0,0,0) errors>
##  4 Albany - NY      10580 <LM w/ ARIMA(0,0,0) errors>
##  5 Albany - OR      10540 <LM w/ ARIMA(0,0,1) errors>
##  6 Albuquerque - NM 10740 <LM w/ ARIMA(0,0,0) errors>
##  7 Alexandria - LA  10780 <LM w/ ARIMA(0,0,0) errors>
##  8 Altoona - PA     11020 <LM w/ ARIMA(0,0,0) errors>
##  9 Amarillo - TX    11100 <LM w/ ARIMA(0,0,0) errors>
## 10 Ames - IA        11180 <LM w/ ARIMA(0,0,1) errors>
## #  with 380 more rows
## #  Use `print(n = ...)` to see more rows

fc <- fit %>%
  forecast(test)
fc

## # A fable: 7,800 x 19 [1Q]
## # Key:     geo, cbsa, .model [390]
##    geo      cbsa .model    Date    msa_index .mean    pop house income total
##    <chr>   <dbl> <chr>    <qtr>       <dist> <dbl>  <dbl>   <dbl>  <dbl>   <dbl>
##  1 Abilen 10180 arima  2023 Q1 N(288, 0.92)  288. 178611   67952  58103   73961
##  2 Abilen 10180 arima  2023 Q2  N(289, 3.8)  289. 178915   68033  57473   73961
##  3 Abilen 10180 arima  2023 Q3  N(290, 8.9)  290. 179194   68125  56943   73961
##  4 Abilen 10180 arima  2023 Q4   N(292, 16)  292. 179427   68212  56690   73961
##  5 Abilen 10180 arima  2024 Q1   N(294, 24)  294. 179659   68302  56979   73961
##  6 Abilen 10180 arima  2024 Q2   N(295, 33)  295. 179902   68396  57838   73961
##  7 Abilen 10180 arima  2024 Q3   N(297, 42)  297. 180176   68491  58675   73961
##  8 Abilen 10180 arima  2024 Q4   N(300, 50)  300. 180460   68612  59446   73961
##  9 Abilen 10180 arima  2025 Q1   N(303, 58)  303. 180733   68736  60024   73961
## 10 Abilen 10180 arima  2025 Q2   N(305, 65)  305. 180991   68871  60273   73961
## #  with 7,790 more rows, 9 more variables: industrial_emp <dbl>,
## #   office_emp <dbl>, cap <dbl>, national <dbl>, Emp_house_perc <dbl>,
## #   Ind_perc <dbl>, rent_burden <dbl>, Office_perc <dbl>, Emp_perc <dbl>, and
## #   abbreviated variable names households, total_emp
## #  Use `print(n = ...)` to see more rows, and `colnames()` to see all variable names
…
## Warning in sqrt(diag(best$var.coef)): NaNs produced

## Warning in sqrt(diag(best$var.coef)): NaNs produced

## Warning in sqrt(diag(best$var.coef)): NaNs produced

## Warning in sqrt(diag(best$var.coef)): NaNs produced

## Warning in sqrt(diag(best$var.coef)): NaNs produced

## Warning in sqrt(diag(best$var.coef)): NaNs produced

fit_missed

## # A mable: 60 x 3
## # Key:     geo, cbsa [60]
##    geo                    cbsa                                 arima
##    <chr>                 <dbl>                               <model>
##  1 Akron - OH            10420 <LM w/ ARIMA(0,0,2)(0,0,1)[4] errors>
##  2 Anchorage - AK        11260 <LM w/ ARIMA(2,0,0)(1,0,0)[4] errors>
##  3 Bakersfield - CA      12540 <LM w/ ARIMA(0,0,0)(1,0,0)[4] errors>
##  4 Baton Rouge - LA      12940 <LM w/ ARIMA(0,0,1)(1,0,0)[4] errors>
##  5 Binghamton - NY       13780 <LM w/ ARIMA(0,0,2)(1,0,0)[4] errors>
##  6 Canton - OH           15940           <LM w/ ARIMA(2,0,0) errors>
##  7 Champaign-Urbana - IL 16580 <LM w/ ARIMA(2,0,0)(0,0,1)[4] errors>
##  8 Columbia - SC         17900           <LM w/ ARIMA(2,0,1) errors>
##  9 Columbus - OH         18140           <LM w/ ARIMA(1,0,0) errors>
## 10 Corpus Christi - TX   18580           <LM w/ ARIMA(2,0,0) errors>
## #  with 50 more rows
## #  Use `print(n = ...)` to see more rows

fc_missed <- fit_missed %>%
  forecast(test_missed)
fc_missed

## # A fable: 1,200 x 19 [1Q]
## # Key:     geo, cbsa, .model [60]
##    geo       cbsa .model    Date   msa_index .mean    pop house income total
##    <chr>    <dbl> <chr>    <qtr>      <dist> <dbl>  <dbl>   <dbl>  <dbl>   <dbl>
##  1 Akron - 10420 arima  2023 Q1 N(229, 1.8)  229. 6.96e5 293417. 67110. 327232.
##  2 Akron - 10420 arima  2023 Q2 N(227, 4.2)  227. 6.95e5 293621. 67187. 328292.
##  3 Akron - 10420 arima  2023 Q3 N(225, 5.4)  225. 6.95e5 293880. 67229. 329056.
##  4 Akron - 10420 arima  2023 Q4 N(227, 5.4)  227. 6.94e5 294327. 67285. 329607.
##  5 Akron - 10420 arima  2024 Q1 N(228, 5.8)  228. 6.94e5 294776. 67397. 330004.
##  6 Akron - 10420 arima  2024 Q2 N(228, 6.4)  228. 6.93e5 295213. 67635. 330291.
##  7 Akron - 10420 arima  2024 Q3 N(229, 6.7)  229. 6.93e5 295623. 67908. 330498.
##  8 Akron - 10420 arima  2024 Q4 N(230, 6.7)  230. 6.92e5 295997. 68257. 330647.
##  9 Akron - 10420 arima  2025 Q1 N(232, 6.7)  232. 6.92e5 296326. 68633. 330755.
## 10 Akron - 10420 arima  2025 Q2 N(233, 6.7)  233. 6.91e5 296607. 69079. 330832.
## #  with 1,190 more rows, 9 more variables: industrial_emp <dbl>,
## #   office_emp <dbl>, cap <dbl>, national <dbl>, Emp_house_perc <dbl>,
## #   Ind_perc <dbl>, rent_burden <dbl>, Office_perc <dbl>, Emp_perc <dbl>, and
## #   abbreviated variable names households, total_emp
## #  Use `print(n = ...)` to see more rows, and `colnames()` to see all variable names
…
